{
  "usingComponents": {
    "component-top": "../../component/titleTop/titleTop",
    "component-comment" : "../../component/comment/comment",
    "component-writeComment" : "../../component/writeComment/writeComment"
  }
}