{
	"description": "项目配置文件。",
	"setting": {
		"urlCheck": false,
		"es6": true,
		"postcss": true,
		"minified": true,
		"newFeature": true,
		"autoAudits": false
	},
	"compileType": "miniprogram",
	"libVersion": "2.10.2",
	"appid": "wxe2576adfa59c8866",
	"projectname": "%E7%A7%9F%E6%88%BF",
	"simulatorType": "wechat",
	"simulatorPluginLibVersion": {},
	"condition": {
		"search": {
			"current": -1,
			"list": []
		},
		"conversation": {
			"current": -1,
			"list": []
		},
		"plugin": {
			"current": -1,
			"list": []
		},
		"game": {
			"currentL": -1,
			"list": []
		},
		"gamePlugin": {
			"current": -1,
			"list": []
		},
		"miniprogram": {
			"current": 1,
			"list": [
				{
					"id": 0,
					"name": "注册页",
					"pathName": "selfer/register/register",
					"query": ""
				},
				{
					"id": 1,
					"name": "发布",
					"pathName": "issue/issue/issue",
					"query": "",
					"scene": null
				},
				{
					"id": -1,
					"name": "我的",
					"pathName": "selfer/index/index",
					"query": ""
				},
				{
					"id": -1,
					"name": "私信",
					"pathName": "pages/myMessage/myMessage",
					"query": ""
				},
				{
					"id": -1,
					"name": "聊天界面",
					"pathName": "pages/myMessageContent/myMessageContent",
					"query": ""
				},
				{
					"id": -1,
					"name": "report",
					"pathName": "selfer/report/report",
					"query": ""
				},
				{
					"id": -1,
					"name": "lookphonenumber",
					"pathName": "pages/lookphonenumber/index",
					"query": "",
					"scene": null
				},
				{
					"id": -1,
					"name": "success",
					"pathName": "pages/reportSuccess/index",
					"query": "",
					"scene": null
				},
				{
					"id": 8,
					"name": "pages/index/index",
					"pathName": "pages/index/index",
					"query": "",
					"scene": 1011
				}
			]
		}
	}
}