<?xml version="1.0" standalone="no"?>
<!DOCTYPE svg PUBLIC "-//W3C//DTD SVG 1.1//EN" "http://www.w3.org/Graphics/SVG/1.1/DTD/svg11.dtd" >
<!--
2013-9-30: Created.
-->
<svg>
<metadata>
Created by iconfont
</metadata>
<defs>

<font id="iconfont" horiz-adv-x="1024" >
  <font-face
    font-family="iconfont"
    font-weight="500"
    font-stretch="normal"
    units-per-em="1024"
    ascent="896"
    descent="-128"
  />
    <missing-glyph />
    
    <glyph glyph-name="solid-home" unicode="&#58945;" d="M977.732267 522.359467L588.4416 825.4464c-33.501867 26.146133-86.084267 26.112-119.569067 0L79.598933 522.359467c-13.312-10.359467-15.581867-29.422933-5.0688-42.496 10.496-13.1072 29.3888-15.342933 42.683733-5.000533L136.533333 486.4l0-494.933333c0-51.950933 48.384-85.333333 97.262933-85.333333l614.314667 0C896.392533-93.866667 921.6-62.822400000000016 921.6-8.53333299999997L921.6 486.4l17.5616-11.537067c5.666133-4.386133 12.5952-6.5024 19.268267-6.5024 9.0624 0 18.158933 3.925333 24.200533 11.502933C993.160533 492.9536 991.061333 512 977.732267 522.359467zM631.466667-25.600000000000023L426.666667-25.600000000000023 426.666667 230.39999999999998c0 35.208533 39.0656 85.333333 102.4 85.333333s102.4-50.141867 102.4-85.333333L631.466667-25.600000000000023z"  horiz-adv-x="1024" />

    


  </font>
</defs></svg>
